<?xml version="1.0" encoding="UTF-8"?>
<svg width="1440px" height="1641px" viewBox="0 0 1440 1641" version="1.1" xmlns="http://www.w3.org/2000/svg" xmlns:xlink="http://www.w3.org/1999/xlink">
    <!-- Generator: Sketch 50.2 (55047) - http://www.bohemiancoding.com/sketch -->
    <title>Rectangle 9</title>
    <desc>Created with Sketch.</desc>
    <defs>
        <linearGradient x1="50%" y1="24.304552%" x2="50%" y2="100%" id="linearGradient-1">
            <stop stop-color="#FFFFFF" offset="0%"></stop>
            <stop stop-color="#F6F8F9" offset="100%"></stop>
        </linearGradient>
    </defs>
    <g id="Page-1" stroke="none" stroke-width="1" fill="none" fill-rule="evenodd">
        <g id="Landing-page-Copy-5" transform="translate(0.000000, -1146.000000)" fill="url(#linearGradient-1)">
            <g id="about-us-copy-2" transform="translate(-29.000000, 1146.000000)">
                <path d="M60,0 L1470,0 L1470,1100.5902 C1456.67233,1249.96455 1389.71183,1324.65172 1269.1185,1324.65172 C1080.4704,1324.65172 1107.14256,1172.38626 920.923813,1181.25235 C823.910331,1185.87127 828.646001,1268.31568 753.265599,1308.62106 C680.806696,1347.36434 608.240544,1281.02815 516.146935,1297.76434 C432.801532,1312.91071 425.88312,1420.46956 358.432253,1450.12617 C316.928464,1468.37444 188.867154,1391.05612 114.248325,1469.12011 C87.5862318,1497.0132 49.5034568,1580.30649 0,1719 L60,0 Z" id="Rectangle-9"></path>
            </g>
        </g>
    </g>
</svg>