<?xml version="1.0" encoding="UTF-8"?>
<svg width="9px" height="6px" viewBox="0 0 9 6" version="1.1" xmlns="http://www.w3.org/2000/svg" xmlns:xlink="http://www.w3.org/1999/xlink">
    <!-- Generator: Sketch 50.2 (55047) - http://www.bohemiancoding.com/sketch -->
    <title>ion-arrow-up-b - Ionicons</title>
    <desc>Created with Sketch.</desc>
    <defs></defs>
    <g id="Page-1" stroke="none" stroke-width="1" fill="none" fill-rule="evenodd" font-family="Ionicons" font-size="14" font-weight="400">
        <g id="BTC" transform="translate(-165.000000, -554.000000)" fill="#E81E8D">
            <g id="RIPPLE-Copy-2" transform="translate(0.000000, 170.000000)">
                <g id="card-btc">
                    <g id="Group-2-Copy" transform="translate(41.000000, 377.750000)">
                        <text id="ion-arrow-up-b---Ionicons" transform="translate(130.000000, 9.000000) scale(1, -1) translate(-130.000000, -9.000000) ">
                            <tspan x="124" y="14"></tspan>
                        </text>
                    </g>
                </g>
            </g>
        </g>
    </g>
</svg>