<?xml version="1.0" encoding="UTF-8"?>
<svg width="1440px" height="1252px" viewBox="0 0 1440 1252" version="1.1" xmlns="http://www.w3.org/2000/svg" xmlns:xlink="http://www.w3.org/1999/xlink">
    <!-- Generator: Sketch 50.2 (55047) - http://www.bohemiancoding.com/sketch -->
    <title>Group 12</title>
    <desc>Created with Sketch.</desc>
    <defs>
        <linearGradient x1="38.9415955%" y1="103.507325%" x2="100%" y2="-7.36462846%" id="linearGradient-1">
            <stop stop-color="#24B0FF" offset="0%"></stop>
            <stop stop-color="#452AF8" offset="100%"></stop>
        </linearGradient>
        <linearGradient x1="23.1572533%" y1="38.7973211%" x2="106.774888%" y2="135.600129%" id="linearGradient-2">
            <stop stop-color="#2D89FD" offset="0%"></stop>
            <stop stop-color="#395BFA" offset="100%"></stop>
        </linearGradient>
    </defs>
    <g id="Page-1" stroke="none" stroke-width="1" fill="none" fill-rule="evenodd">
        <g id="Landing-page-Copy-5">
            <g id="Hero" transform="translate(-263.000000, -375.000000)">
                <g id="Group-12">
                    <path d="M265.993572,375.000015 L1699.99358,375 C1701.65043,375 1702.99358,376.343146 1702.99358,378 C1702.99358,378 1702.99358,378 1702.99358,378 L1702.99357,1205.21793 L1702.99356,1345.66731 C1702.99356,1347.32416 1701.65042,1348.6673 1699.99357,1348.6673 C1699.89303,1348.6673 1699.79255,1348.66224 1699.69252,1348.65216 C1637.0875,1342.33785 1574.48248,1352.11944 1511.87745,1377.99691 C1389.69973,1428.49846 1362.6804,1520.79824 1227.52201,1529.00001 C1024.83204,1541.29979 1048.40469,1421.19711 836.180721,1419.00001 C692.665843,1417.51425 646.112517,1550.31715 506.044313,1601.63429 C359.518942,1655.31715 352.531801,1605.17836 262.993572,1609.00001 C241.66881,1609.91019 241.668809,1610.9129 262.99357,1612.00814 L262.993572,378.000015 C262.993572,376.34316 264.336717,375.000015 265.993572,375.000015 Z" id="bg" fill="url(#linearGradient-1)"></path>
                    <circle id="Oval-11" fill="url(#linearGradient-2)" opacity="0.316796875" cx="352.5" cy="352.5" r="352.5"></circle>
                    <circle id="Oval-11-Copy" fill="url(#linearGradient-2)" opacity="0.316796875" cx="1639" cy="971" r="193"></circle>
                </g>
            </g>
        </g>
    </g>
</svg>