<?xml version="1.0" encoding="UTF-8"?>
<svg width="350px" height="153px" viewBox="0 0 350 153" version="1.1" xmlns="http://www.w3.org/2000/svg" xmlns:xlink="http://www.w3.org/1999/xlink">
    <!-- Generator: Sketch 50.2 (55047) - http://www.bohemiancoding.com/sketch -->
    <title>Group 3</title>
    <desc>Created with Sketch.</desc>
    <defs>
        <linearGradient x1="50%" y1="0%" x2="50%" y2="100%" id="linearGradient-1">
            <stop stop-color="#FFF0F8" offset="0%"></stop>
            <stop stop-color="#FFFFFF" offset="100%"></stop>
        </linearGradient>
        <linearGradient x1="32.9236436%" y1="22.0193725%" x2="50%" y2="178.637347%" id="linearGradient-2">
            <stop stop-color="#FFF6FB" offset="0%"></stop>
            <stop stop-color="#E85BA9" offset="100%"></stop>
        </linearGradient>
        <circle id="path-3" cx="225" cy="48" r="8"></circle>
        <filter x="-59.4%" y="-46.9%" width="218.8%" height="218.8%" filterUnits="objectBoundingBox" id="filter-4">
            <feMorphology radius="1" operator="dilate" in="SourceAlpha" result="shadowSpreadOuter1"></feMorphology>
            <feOffset dx="0" dy="2" in="shadowSpreadOuter1" result="shadowOffsetOuter1"></feOffset>
            <feGaussianBlur stdDeviation="2.5" in="shadowOffsetOuter1" result="shadowBlurOuter1"></feGaussianBlur>
            <feComposite in="shadowBlurOuter1" in2="SourceAlpha" operator="out" result="shadowBlurOuter1"></feComposite>
            <feColorMatrix values="0 0 0 0 0.716438389   0 0 0 0 0.7403544   0 0 0 0 0.81164966  0 0 0 1 0" type="matrix" in="shadowBlurOuter1"></feColorMatrix>
        </filter>
    </defs>
    <g id="Page-1" stroke="none" stroke-width="1" fill="none" fill-rule="evenodd">
        <g id="BTC" transform="translate(-791.000000, -313.000000)">
            <g id="RIPPLE" transform="translate(791.000000, 170.000000)">
                <g id="card-btc">
                    <g id="Group-3" transform="translate(0.000000, 145.000000)">
                        <path d="M3.12642039,111.5 L27.314221,59.968779 C32.0075642,49.9697837 43.9180579,45.6687028 53.9170532,50.362046 C54.0371749,50.4184289 54.1567324,50.4760058 54.275708,50.5347683 L64.0695855,55.3719971 C71.5347565,59.0590699 80.5032625,57.735571 86.5851959,52.0493271 L103.48769,36.2465065 C111.556233,28.702901 124.212381,29.1284473 131.755986,37.1969908 C132.104511,37.5697686 132.43864,37.9557494 132.75764,38.3540858 L152.126223,62.5396858 C159.030782,71.1614278 171.617336,72.5534792 180.239078,65.6489196 C181.244988,64.843356 182.170682,63.9424539 183.00325,62.9587788 L195.208456,48.5383897 C202.344474,40.1072201 214.964174,39.0572924 223.395343,46.1933107 C223.953311,46.6655664 224.484968,47.1680573 224.987921,47.6985214 L238.903419,62.3751917 C246.503283,70.3907662 259.162098,70.7277655 267.177672,63.1279008 C268.497892,61.8761513 269.641144,60.4501179 270.575795,58.889258 L296.722091,15.2251613 C300.334479,9.19250282 306.849463,5.5 313.880986,5.5 L348.525911,5.5 L348.525911,127.690859 L0.525911448,127.690859 L0.525911448,111.5 L3.12642039,111.5 Z" id="Line-Copy" fill="url(#linearGradient-1)"></path>
                        <polygon id="Rectangle-5" fill="url(#linearGradient-2)" points="207 44 221.122852 43.7229381 241 65 241 128 207 128"></polygon>
                        <path d="M2.68426585,111.5 L4.5,111.5 L28.3764165,60.1403511 C33.0328349,50.124107 44.927378,45.7791098 54.9436221,50.4355282 C55.1094211,50.512606 55.2741554,50.5919537 55.4377785,50.6735491 L64.6497426,55.2673592 C72.157297,59.0112166 81.2034643,57.6717734 87.3039885,51.9130022 L103.669918,36.4638961 C111.702147,28.881635 124.360192,29.2464058 131.942453,37.2786343 C132.336217,37.695767 132.711854,38.1296471 133.06832,38.5790712 L151.87077,62.2847465 C158.73482,70.9387745 171.314707,72.3898388 179.968735,65.5257892 C181.027791,64.6857857 181.99896,63.740579 182.867345,62.704667 L194.547075,48.7717021 C201.64304,40.3067948 214.25762,39.1970481 222.722527,46.2930133 C223.331528,46.803527 223.909561,47.3498838 224.453552,47.9291775 L237.767373,62.1070266 C245.328651,70.1590103 257.985701,70.5568053 266.037685,62.9955266 C267.408018,61.7087045 268.590088,60.2351147 269.548997,58.6182609 L295.24108,15.2978595 C298.843304,9.22401204 305.381596,5.5 312.443299,5.5 L346.591942,5.5" id="Line" stroke="#E81E8D" stroke-width="5" stroke-linecap="square" stroke-linejoin="round"></path>
                        <path d="M0.5,128.5 L348.501437,128.5" id="Line-2" stroke="#CFD6EA" stroke-linecap="square"></path>
                        <text id="Mon" font-family="Rubik-Medium, Rubik" font-size="11" font-weight="400" fill="#C0C6D8">
                            <tspan x="16" y="150">MON</tspan>
                        </text>
                        <text id="TUE" font-family="Rubik-Medium, Rubik" font-size="11" font-weight="400" fill="#C0C6D8">
                            <tspan x="67.6666667" y="150">TUE</tspan>
                        </text>
                        <text id="WED" font-family="Rubik-Medium, Rubik" font-size="11" font-weight="400" fill="#C0C6D8">
                            <tspan x="116.333333" y="150">WED</tspan>
                        </text>
                        <text id="THU" font-family="Rubik-Medium, Rubik" font-size="11" font-weight="400" fill="#C0C6D8">
                            <tspan x="167" y="150">THU</tspan>
                        </text>
                        <text id="FRI" font-family="Rubik-Medium, Rubik" font-size="11" font-weight="400" fill="#2A3147">
                            <tspan x="216.666667" y="150">FRI</tspan>
                        </text>
                        <text id="SAT" font-family="Rubik-Medium, Rubik" font-size="11" font-weight="400" fill="#C0C6D8">
                            <tspan x="261.333333" y="150">SAT</tspan>
                        </text>
                        <text id="SUN" font-family="Rubik-Medium, Rubik" font-size="11" font-weight="400" fill="#C0C6D8">
                            <tspan x="310" y="150">SUN</tspan>
                        </text>
                        <circle id="Oval-2" stroke="#E81E8D" stroke-width="4" fill="#FFFFFF" cx="27.5" cy="62.5" r="5.5"></circle>
                        <circle id="Oval-2-Copy" stroke="#E81E8D" stroke-width="4" fill="#FFFFFF" cx="78.5" cy="56.5" r="5.5"></circle>
                        <circle id="Oval-2-Copy-2" stroke="#E81E8D" stroke-width="4" fill="#FFFFFF" cx="127.5" cy="33.5" r="5.5"></circle>
                        <circle id="Oval-2-Copy-3" stroke="#E81E8D" stroke-width="4" fill="#FFFFFF" cx="178.5" cy="66.5" r="5.5"></circle>
                        <g id="Oval-2-Copy-4">
                            <use fill="black" fill-opacity="1" filter="url(#filter-4)" xlink:href="#path-3"></use>
                            <use stroke="#E81E8D" stroke-width="2" fill="#FFFFFF" fill-rule="evenodd" xlink:href="#path-3"></use>
                        </g>
                        <circle id="Oval-2-Copy-5" stroke="#E81E8D" stroke-width="4" fill="#FFFFFF" cx="270.5" cy="58.5" r="5.5"></circle>
                        <circle id="Oval-2-Copy-6" stroke="#E81E8D" stroke-width="4" fill="#FFFFFF" cx="321.5" cy="5.5" r="5.5"></circle>
                    </g>
                </g>
            </g>
        </g>
    </g>
</svg>